0,0,0
1,6.24E-05,2.22E-02
3.5,0.065,4.63E-02
4,0.095,4.91E-02
5,0.1597,5.91E-02
6,0.1901,0.0684
7.5,0.2458,6.72E-02
8.5,0.2713,0.0899
9.5,0.3289,0.0973
10.5,0.3666,0.1039
12.5,0.4186,0.1148
13.5,0.4523,0.1339
14.5,0.4909,0.1375
15,0.5153,0.1497
16,0.5423,0.1596
16.5,0.5972,0.1656
17.5,0.61,0.1653
19.5,0.6829,0.1801
21,0.7385,0.2196